[
  {
    "comment": "------------PRINCIPAL TITLE OF DATABUNDLE MENU------------",
    "position" : "0",
    "name" : "Bienvenue sur MTN internet"
  },
  {
    "comment": "------------DAILY BUNDLES MENU------------",
    "position" : "1",
    "name" : "Pass jour",
    "subMenu" : [
      {
        "position" : "0",
        "name" : "Pass jour"
      },
      {
        "position" : "1",
        "name" : "40MB a 1000GNF",
        "sub2eMenu" : [
          {
            "position" : "0",
            "name" : "Nous vous proposons aussi 60MB(48H) a 1500GNF"
          },
          {
            "position" : "1",
            "name" : "60MB a 1500GNF(48H)",
            "price" : "1500",
            "keyword" : "BU65",
            "momoKeyword" : "MO12",
            "si" : "84088",
            "momoSi" : "84091"
          },
          {
            "position" : "2",
            "name" : "40MB a 1000GNF(24H)",
            "price" : "1000",
            "keyword" : "BU73",
            "momoKeyword" : "BU34",
            "si" : "80042",
            "momoSi" : "84001"
          }
        ]
      },
      {
        "position" : "2",
        "name" : "120MB a 2000GNF",
        "sub2eMenu" : [
          {
            "position" : "0",
            "name" : "Nous vous proposons aussi 140MB(48H) a 2500GNF"
          },
          {
            "position" : "1",
            "name" : "140MB a 2500GNF(48H)",
            "price" : "2500",
            "keyword" : "BU24",
            "momoKeyword" : "BU51",
            "si" : "84089",
            "momoSi" : "84092"
          },
          {
            "position" : "2",
            "name" : "120MB a 2000GNF(24H)",
            "price" : "2000",
            "keyword" : "BU34",
            "momoKeyword" : "MO00",
            "si" : "84001",
            "momoSi" : "84001"
          }
        ]
      },
      {
        "position" : "3",
        "name" : "250MB a 3000GNF",
        "sub2eMenu" : [
          {
            "position" : "0",
            "name" : "Nous vous proposons aussi 300MB(48H) a 4000GNF"
          },
          {
            "position" : "1",
            "name" : "300MB a 4000GNF(48H)",
            "price" : "4000",
            "keyword" : "BU12",
            "momoKeyword" : "BU47",
            "si" : "84090",
            "momoSi" : "84093"
          },
          {
            "position" : "2",
            "name" : "250MB a 3000GNF(24H)",
            "price" : "3000",
            "keyword" : "BU56",
            "momoKeyword" : "BU66",
            "si" : "80032",
            "momoSi" : "84003"
          }
        ]
      },
      {
        "position" : "4",
        "name" : "500MB a 5000GNF",
        "sub2eMenu" : [
          {
            "position" : "0",
            "name" : "Nous vous proposons aussi 500MB(48H) a 5500GNF"
          },
          {
            "position" : "1",
            "name" : "500MB a 5500GNF(48H)",
            "price" : "5500",
            "keyword" : "BU09",
            "momoKeyword" : "BU14",
            "si" : "80056",
            "momoSi" : "84004"
          },
          {
            "position" : "2",
            "name" : "500MB a 5000GNF(24H)",
            "price" : "5000",
            "keyword" : "BU45",
            "momoKeyword" : "BU08",
            "si" : "84277",
            "momoSi" : "84279"
          }
        ]
      },
      {
        "position" : "5",
        "name" : "BONUS PASS MoMo",
        "sub2eMenu" : [
          {
            "position" : "0",
            "name" : "Bonus MoMo 24H"
          },
          {
            "position" : "1",
            "name" : "40MB + 10MB a 1000F",
            "price" : "1000",
            "keyword" : "BU34",
            "si" : "84001"
          },
          {
            "position" : "2",
            "name" : "120MB + 30MB a 2000F",
            "price" : "2000",
            "keyword" : "BU44",
            "si" : "84002"
          },
          {
            "position" : "3",
            "name" : "250MB + 125MB a 3000F",
            "price" : "3000",
            "keyword" : "BU66",
            "si" : "84003"
          },
          {
            "position" : "4",
            "name" : "500MB + 250MB a 5000F",
            "price" : "5000",
            "keyword" : "BU08",
            "si" : "84001"
          }
        ]
      }
    ]
  },
  {
    "comment": "------------48H BUNDLES MENU------------",
    "position" : "2",
    "name" : "Pass 48H",
    "subMenu" : [
      {
        "position" : "0",
        "name" : "Pass 48H"
      },
      {
        "position" : "1",
        "name" : "60MB a 1500GNF",
        "price" : "1500",
        "keyword" : "Airtime_DATA_40MB_48H",
        "momoKeyword" : "MoMo1_DATA_40MB_48H",
        "si" : "84088",
        "momoSi" : "84091"
      },
      {
        "position" : "2",
        "name" : "140MB a 2500GNF",
        "price" : "2500",
        "keyword" : "BU24",
        "momoKeyword" : "BU51",
        "si" : "84089",
        "momoSi" : "84092"
      },
      {
        "position" : "3",
        "name" : "300MB a 4000GNF",
        "price" : "4000",
        "keyword" : "BU12",
        "momoKeyword" : "BU47",
        "si" : "84090",
        "momoSi" : "84093"
      },
      {
        "position" : "4",
        "name" : "500MB a 5500GNF",
        "price" : "5500",
        "keyword" : "BU09",
        "momoKeyword" : "BU14",
        "si" : "80056",
        "momoSi" : "84004"
      },
      {
        "position" : "5",
        "name" : "BONUS PASS MoMo 48H",
        "sub2eMenu" : [
          {
            "position" : "1",
            "name" : "60MB + 15MB a 1500F",
            "price" : "1500",
            "keyword" : "MO12",
            "si" : "84091"
          },
          {
            "position" : "2",
            "name" : "140MB + 35MB a 2500F",
            "price" : "2500",
            "keyword" : "BU51",
            "si" : "84092"
          },
          {
            "position" : "3",
            "name" : "300MB + 150MB a 4000F",
            "price" : "4000",
            "keyword" : "BU47",
            "si" : "84093"
          },
          {
            "position" : "4",
            "name" : "500MB + 250MB a 5500F",
            "price" : "5000",
            "keyword" : "BU68",
            "si" : "84387"
          }
        ]
      }
    ]
  },
  {
    "comment": "------------MoMo BUNUS BUNDLES MENU DRIVEN TO 771------------",
    "position" : "3",
    "name" : "BONUS PASS MoMo"
  },
  {
    "comment": "------------WEEKLY BUNDLES MENU------------",
    "position" : "4",
    "name" : "Pass Semaine",
    "subMenu" : [
      {
        "position" : "0",
        "name" : "Pass Semaine"
      },
      {
        "position" : "1",
        "name" : "650MB a 10000F",
        "price" : "10000",
        "keyword" : "BU44",
        "momoKeyword" : "BU21",
        "si" : "84276",
        "momoSi" : "84278"
      },
      {
        "comment": "Forfait Semaine",
        "position" : "2",
        "name" : "1.3GB a 15000F",
        "price" : "15000",
        "keyword" : "BU19",
        "momoKeyword" : "BU49",
        "si" : "80039",
        "momoSi" : "84006"
      },
      {
        "position" : "3",
        "name" : "2.5GB a 30000F",
        "price" : "30000",
        "keyword" : "BU69",
        "momoKeyword" : "MO16",
        "si" : "80055",
        "momoSi" : "80074"
      },
      {
        "position" : "4",
        "name" : "BONUS PASS MoMo",
        "sub2eMenu" : [
          {
            "position" : "1",
            "name" : "650MB + 325MB a 10000F",
            "price" : "10000",
            "keyword" : "BU21",
            "si" : "84278"
          },
          {
            "position" : "2",
            "name" : "1.3GB + 650MB a 15000F",
            "price" : "15000",
            "keyword" : "BU10",
            "si" : "84274"
          },
          {
            "position" : "3",
            "name" : "2.5GB + 1.25GB a 30000F",
            "price" : "30000",
            "keyword" : "MO02",
            "si" : "84389"
          }
        ]
      }
    ]
  },
  {
    "comment": "------------MONTHLY BUNDLES MENU------------",
    "position" : "5",
    "name" : "Pass Mois",
    "subMenu" : [
      {
        "position" : "0",
        "name" : "Pass Mois"
      },
      {
        "position" : "1",
        "name" : "2.5GB a 40000F",
        "price" : "40000",
        "keyword" : "BU37",
        "momoKeyword" : "MO09",
        "si" : "80007",
        "momoSi" : "84008"
      },
      {
        "position" : "2",
        "name" : "5GB a 75000F",
        "price" : "75000",
        "keyword" : "BU25",
        "momoKeyword" : "BU54",
        "si" : "80057",
        "momoSi" : "84009"
      },
      {
        "position" : "3",
        "name" : "7.5GB a 110000F",
        "price" : "110000",
        "keyword" : "BU39",
        "momoKeyword" : "BU64",
        "si" : "80009",
        "momoSi" : "84010"
      },
      {
        "position" : "4",
        "name" : "15GB a 190000F",
        "price" : "190000",
        "keyword" : "BU52",
        "momoKeyword" : "BU28",
        "si" : "80017",
        "momoSi" : "84011"
      },
      {
        "position" : "5",
        "name" : "30GB a 355000F",
        "price" : "355000",
        "keyword" : "BU29",
        "momoKeyword" : "20Gb_Monthly_100Momo",
        "si" : "80058",
        "momoSi" : "84012"
      },
      {
        "position" : "6",
        "name" : "50GB a 590000F",
        "price" : "590000",
        "keyword" : "CO58",
        "momoKeyword" : "MO02",
        "si" : "84163",
        "momoSi" : "84389"
      },
      {
        "position" : "7",
        "name" : "100GB a 1100000F",
        "price" : "1100000",
        "keyword" : "BU52",
        "momoKeyword" : "MO11",
        "si" : "84162",
        "momoSi" : "84390"
      },
      {
        "position" : "8",
        "name" : "BONUS PASS MoMo",
        "sub2eMenu" : [
          {
            "position" : "0",
            "name" : "BONUS PASS MoMo"
          },
          {
            "position" : "1",
            "name" : "2.5GB + 1.25GB a 40000F",
            "price" : "40000",
            "keyword" : "MO09",
            "si" : "84008"
          },
          {
            "position" : "2",
            "name" : "5GB + 2.5GB a 75000F",
            "price" : "75000",
            "keyword" : "BU54",
            "si" : "84009"
          },
          {
            "position" : "3",
            "name" : "7.5GB + 3.75GB a 110000F",
            "price" : "110000",
            "keyword" : "BU64",
            "si" : "84010"
          },
          {
            "position" : "4",
            "name" : "15GB + 7.5GB a 190000F",
            "price" : "190000",
            "keyword" : "BU28",
            "si" : "84011"
          },
          {
            "position" : "5",
            "name" : "30GB + 15GB a 355000F",
            "price" : "355000",
            "keyword" : "MO22",
            "si" : "80079"
          },
          {
            "position" : "6",
            "name" : "50GB + 25GB a 590000F",
            "price" : "590000",
            "keyword" : "MO02",
            "si" : "84389"
          },
          {
            "position" : "7",
            "name" : "100GB + 50GB a 1100000F",
            "price" : "1100000",
            "keyword" : "MO11",
            "si" : "84390"
          }
        ]
      }
    ]
  },
  {
    "comment": "------------NIGHT BUNDLES MENU------------",
    "position" : "6",
    "name" : "Pass Nuit",
    "subMenu" : [
      {
        "position" : "0",
        "name" : "Pass Nuit"
      },
      {
        "position" : "1",
        "name" : "1GB a 5000F",
        "price" : "5000",
        "keyword" : "NT00",
        "momoKeyword" : "1Go_Night_100Momo",
        "si" : "80016",
        "momoSi" : "84005"
      },
      {
        "position" : "2",
        "name" : "YELLO NIGHT a 2000F",
        "price" : "2000",
        "keyword" : "NT04",
        "momoKeyword" : "100GB_wimax",
        "si" : "84102",
        "momoSi" : "84415"
      }
    ]
  },
  {
    "comment": "------------MDP BUNDLE ACCOUNT DRIVEN TO 774------------",
    "position" : "7",
    "name" : "Mon compte"
  }
]
